<svg width="26" height="14" viewBox="0 0 26 14" fill="none" xmlns="http://www.w3.org/2000/svg">
<path d="M25 1L13 13L1 1" stroke="#9DA1AC" stroke-width="2" stroke-linecap="round" stroke-linejoin="round"/>
</svg>
